# [objeto: Tabla-Tesoreria]	-[operacion: Creacion de flujo]	-[sujeto: juan]	-[Saturday/2018/06/16 02:56:51]	
# [objeto: Tabla-Tesoreria]	-[operacion: Asignacion de Actividad a Flujo]	-[sujeto: juan]	- "Actividad Asignada: FASE-1"	-[Saturday/2018/06/16 03:14:01]	
# [objeto: Tabla-Tesoreria]	-[operacion: Asignacion de Actividad a Flujo]	-[sujeto: juan]	- "Actividad Asignada: FASE-2"	-[Saturday/2018/06/16 03:14:07]	
# [objeto: Tabla-Tesoreria]	-[operacion: Asignacion de Actividad a Flujo]	-[sujeto: juan]	- "Actividad Asignada: FASE-3"	-[Saturday/2018/06/16 03:14:13]	
# [objeto: us_t9]	-[operacion: Cambio de Estado US (Avanzar: Haciendo)]	-[sujeto: juan]	- "En flujo:"	- "Tabla-Tesoreria"	-[Saturday/2018/06/16 03:17:33]	
# [objeto: us_t10]	-[operacion: Cambio de Estado US (Avanzar: Haciendo)]	-[sujeto: juan]	- "En flujo:"	- "Tabla-Tesoreria"	-[Saturday/2018/06/16 03:18:02]	
# [objeto: us_t1]	-[operacion: Cambio de Estado US (Avanzar: Haciendo)]	-[sujeto: juan]	- "En flujo:"	- "Tabla-Tesoreria"	-[Saturday/2018/06/16 03:18:08]	
# [objeto: us_t1]	-[operacion: Cambio de Estado US (Avanzar: Por Hacer)]	-[sujeto: juan]	- "En flujo:"	- "Tabla-Tesoreria"	-[Saturday/2018/06/16 03:18:14]	
# [objeto: us_t1]	-[operacion: Cambio de Estado US (Avanzar: Haciendo)]	-[sujeto: juan]	- "En flujo:"	- "Tabla-Tesoreria"	-[Saturday/2018/06/16 03:18:15]	
# [objeto: us_t10]	-[operacion: Cambio de Estado US (Avanzar: Por Hacer)]	-[sujeto: juan]	- "En flujo:"	- "Tabla-Tesoreria"	-[Saturday/2018/06/16 03:18:21]	
# [objeto: us_t10]	-[operacion: Cambio de Estado US (Avanzar: Haciendo)]	-[sujeto: juan]	- "En flujo:"	- "Tabla-Tesoreria"	-[Saturday/2018/06/16 03:18:25]	
# [objeto: us_t2]	-[operacion: Cambio de Estado US (Avanzar: Haciendo)]	-[sujeto: romi]	- "En flujo:"	- "Tabla-Tesoreria"	-[Saturday/2018/06/16 03:29:10]	
# [objeto: us_t5]	-[operacion: Cambio de Estado US (Avanzar: Haciendo)]	-[sujeto: romi]	- "En flujo:"	- "Tabla-Tesoreria"	-[Saturday/2018/06/16 03:29:21]	
# [objeto: us_t5]	-[operacion: Cambio de Estado US (Avanzar: Por Hacer)]	-[sujeto: romi]	- "En flujo:"	- "Tabla-Tesoreria"	-[Saturday/2018/06/16 03:29:27]	
# [objeto: us_t5]	-[operacion: Cambio de Estado US (Avanzar: Haciendo)]	-[sujeto: romi]	- "En flujo:"	- "Tabla-Tesoreria"	-[Saturday/2018/06/16 03:29:46]	
# [objeto: us_t4]	-[operacion: Cambio de Estado US (Avanzar: Haciendo)]	-[sujeto: manu]	- "En flujo:"	- "Tabla-Tesoreria"	-[Saturday/2018/06/16 03:33:05]	
# [objeto: us_t4]	-[operacion: Cambio de Estado US (Avanzar: Por Hacer)]	-[sujeto: manu]	- "En flujo:"	- "Tabla-Tesoreria"	-[Saturday/2018/06/16 03:33:11]	
# [objeto: us_t4]	-[operacion: Cambio de Estado US (Avanzar: Haciendo)]	-[sujeto: manu]	- "En flujo:"	- "Tabla-Tesoreria"	-[Saturday/2018/06/16 03:33:14]	
# [objeto: us_t4]	-[operacion: Cambio de Estado US (Avanzar: Por Hacer)]	-[sujeto: manu]	- "En flujo:"	- "Tabla-Tesoreria"	-[Saturday/2018/06/16 03:33:21]	
# [objeto: us_t7]	-[operacion: Cambio de Estado US (Avanzar: Haciendo)]	-[sujeto: manu]	- "En flujo:"	- "Tabla-Tesoreria"	-[Saturday/2018/06/16 03:33:28]	
# [objeto: us_t8]	-[operacion: Cambio de Estado US (Avanzar: Haciendo)]	-[sujeto: manu]	- "En flujo:"	- "Tabla-Tesoreria"	-[Saturday/2018/06/16 03:33:34]	
# [objeto: us_t8]	-[operacion: Cambio de Estado US (Avanzar: Por Hacer)]	-[sujeto: manu]	- "En flujo:"	- "Tabla-Tesoreria"	-[Saturday/2018/06/16 03:33:43]	
# [objeto: us_t8]	-[operacion: Cambio de Estado US (Avanzar: Haciendo)]	-[sujeto: manu]	- "En flujo:"	- "Tabla-Tesoreria"	-[Saturday/2018/06/16 03:33:46]	
# [objeto: us_t6]	-[operacion: Cambio de Estado US (Avanzar: Haciendo)]	-[sujeto: enzo]	- "En flujo:"	- "Tabla-Tesoreria"	-[Saturday/2018/06/16 03:34:56]	
# [objeto: us_t3]	-[operacion: Cambio de Estado US (Avanzar: Haciendo)]	-[sujeto: enzo]	- "En flujo:"	- "Tabla-Tesoreria"	-[Saturday/2018/06/16 03:35:00]	
# [objeto: us_t3]	-[operacion: Cambio de Estado US (Avanzar: Por Hacer)]	-[sujeto: enzo]	- "En flujo:"	- "Tabla-Tesoreria"	-[Saturday/2018/06/16 03:35:03]	
# [objeto: us_t3]	-[operacion: Cambio de Estado US (Avanzar: Haciendo)]	-[sujeto: enzo]	- "En flujo:"	- "Tabla-Tesoreria"	-[Saturday/2018/06/16 03:35:03]	
# [objeto: us_t3]	-[operacion: Cambio de Estado US (Avanzar: Por Hacer)]	-[sujeto: enzo]	- "En flujo:"	- "Tabla-Tesoreria"	-[Saturday/2018/06/16 03:35:08]	
# [objeto: us_t3]	-[operacion: Cambio de Estado US (Avanzar: Haciendo)]	-[sujeto: enzo]	- "En flujo:"	- "Tabla-Tesoreria"	-[Saturday/2018/06/16 03:35:08]	
# [objeto: us1]	-[operacion: Cambio de Estado US (Avanzar: Haciendo)]	-[sujeto: juan]	- "En flujo:"	- "Tabla-Tesoreria"	-[Saturday/2018/06/16 03:55:39]	
# [objeto: us5]	-[operacion: Cambio de Estado US (Avanzar: Haciendo)]	-[sujeto: juan]	- "En flujo:"	- "Tabla-Tesoreria"	-[Saturday/2018/06/16 03:55:47]	
# [objeto: us6]	-[operacion: Cambio de Estado US (Avanzar: Haciendo)]	-[sujeto: juan]	- "En flujo:"	- "Tabla-Tesoreria"	-[Saturday/2018/06/16 03:55:54]	
# [objeto: us6]	-[operacion: Cambio de Estado US (Avanzar: Por Hacer)]	-[sujeto: juan]	- "En flujo:"	- "Tabla-Tesoreria"	-[Saturday/2018/06/16 03:55:55]	
# [objeto: us6]	-[operacion: Cambio de Estado US (Avanzar: Haciendo)]	-[sujeto: juan]	- "En flujo:"	- "Tabla-Tesoreria"	-[Saturday/2018/06/16 03:55:56]	
# [objeto: us2]	-[operacion: Cambio de Estado US (Avanzar: Haciendo)]	-[sujeto: romi]	- "En flujo:"	- "Tabla-Tesoreria"	-[Saturday/2018/06/16 04:12:26]	
# [objeto: us2]	-[operacion: Cambio de Estado US (Avanzar: Por Hacer)]	-[sujeto: romi]	- "En flujo:"	- "Tabla-Tesoreria"	-[Saturday/2018/06/16 04:12:45]	
# [objeto: us2]	-[operacion: Cambio de Estado US (Avanzar: Haciendo)]	-[sujeto: romi]	- "En flujo:"	- "Tabla-Tesoreria"	-[Saturday/2018/06/16 04:12:45]	
# [objeto: us2]	-[operacion: Cambio de Estado US (Avanzar: Por Hacer)]	-[sujeto: romi]	- "En flujo:"	- "Tabla-Tesoreria"	-[Saturday/2018/06/16 04:12:46]	
# [objeto: us3]	-[operacion: Cambio de Estado US (Avanzar: Haciendo)]	-[sujeto: manu]	- "En flujo:"	- "Tabla-Tesoreria"	-[Saturday/2018/06/16 04:13:11]	
# [objeto: us3]	-[operacion: Cambio de Estado US (Avanzar: Por Hacer)]	-[sujeto: manu]	- "En flujo:"	- "Tabla-Tesoreria"	-[Monday/2018/06/25 14:07:40]	
# [objeto: us2]	-[operacion: Cambio de Estado US (Avanzar: Haciendo)]	-[sujeto: romi]	- "En flujo:"	- "Tabla-Tesoreria"	-[Tuesday/2018/06/26 21:42:31]	
# [objeto: us6]	-[operacion: Cambio de Estado US (Avanzar: Por Hacer)]	-[sujeto: juan]	- "En flujo:"	- "Tabla-Tesoreria"	-[Saturday/2018/06/30 09:39:59]	
# [objeto: us6]	-[operacion: Cambio de Estado US (Avanzar: Haciendo)]	-[sujeto: juan]	- "En flujo:"	- "Tabla-Tesoreria"	-[Saturday/2018/06/30 09:40:09]	
# [objeto: us1]	-[operacion: Cambio de Estado US (Avanzar: Por Hacer)]	-[sujeto: juan]	- "En flujo:"	- "Tabla-Tesoreria"	-[Saturday/2018/06/30 09:57:59]	
# [objeto: us1]	-[operacion: Cambio de Estado US (Avanzar: Haciendo)]	-[sujeto: juan]	- "En flujo:"	- "Tabla-Tesoreria"	-[Saturday/2018/06/30 09:58:11]	
# [objeto: us1]	-[operacion: Cambio de Estado US (Retroceder: Por Hacer)]	-[sujeto: juan]	- "En flujo:"	- "Tabla-Tesoreria"	-[Saturday/2018/06/30 09:58:19]	
# [objeto: us1]	-[operacion: Cambio de Estado US (Avanzar: Haciendo)]	-[sujeto: juan]	- "En flujo:"	- "Tabla-Tesoreria"	-[Saturday/2018/06/30 09:58:27]	
# [objeto: us1]	-[operacion: Cambio de Estado US (Avanzar: Por Hacer)]	-[sujeto: juan]	- "En flujo:"	- "Tabla-Tesoreria"	-[Saturday/2018/06/30 09:59:38]	
# [objeto: us1]	-[operacion: Cambio de Estado US (Avanzar: Haciendo)]	-[sujeto: juan]	- "En flujo:"	- "Tabla-Tesoreria"	-[Saturday/2018/06/30 09:59:45]	
# [objeto: us6]	-[operacion: Cambio de Estado US (Retroceder: Por Hacer)]	-[sujeto: juan]	- "En flujo:"	- "Tabla-Tesoreria"	-[Saturday/2018/06/30 10:57:50]	
